Halloween Candies
…
Q7 What was the most popular candy bar by this rating for people in US, Canada, UK and all other countries

halloween_candies %>%
drop_na() %>%
filter(year != 2015) %>%
group_by(country, candies) %>%
summarise(candy_ratings = n()) %>%
arrange(desc(candy_ratings)) %>%
top_n(1)

## Selecting by candy_ratings

## # A tibble: 4,503 x 3
## # Groups:   country [56]
##    country candies                             candy_ratings
##    <chr>   <chr>                                       <int>
##  1 usa     hershey_s_milk_chocolate                     2439
##  2 canada  cadbury_creme_eggs                            265
##  3 canada  hersheys_kisses                               265
##  4 canada  peanut_m_m_s                                  265
##  5 uk      reese_s_peanut_butter_cups                     40
##  6 uk      skittles                                       40
##  7 uk      tic_tacs                                       40
##  8 germany any_full_sized_candy_bar                       11
##  9 germany butterfinger                                   11
## 10 germany cash_or_other_forms_of_legal_tender            11
## #  with 4,493 more rows
…
